%YAML 1.1
%TAG !u! tag:unity3d.com,2011:
--- !u!21 &2100000
Material:
  serializedVersion: 6
  m_ObjectHideFlags: 0
  m_CorrespondingSourceObject: {fileID: 0}
  m_PrefabInstance: {fileID: 0}
  m_PrefabAsset: {fileID: 0}
  m_Name: WireFrameBox
  m_Shader: {fileID: 4800000, guid: eb394eb06df28394bad004fea34acc12, type: 3}
  m_ShaderKeywords: 
  m_LightmapFlags: 4
  m_EnableInstancingVariants: 0
  m_DoubleSidedGI: 0
  m_CustomRenderQueue: -1
  stringTagMap: {}
  disabledShaderPasses: []
  m_SavedProperties:
    serializedVersion: 3
    m_TexEnvs:
    - _BumpMap:
        m_Texture: {fileID: 0}
        m_Scale: {x: 1, y: 1}
        m_Offset: {x: 0, y: 0}
    - _Cube:
        m_Texture: {fileID: 0}
        m_Scale: {x: 1, y: 1}
        m_Offset: {x: 0, y: 0}
    - _DetailAlbedoMap:
        m_Texture: {fileID: 0}
        m_Scale: {x: 1, y: 1}
        m_Offset: {x: 0, y: 0}
    - _DetailMask:
        m_Texture: {fileID: 0}
        m_Scale: {x: 1, y: 1}
        m_Offset: {x: 0, y: 0}
    - _DetailNormalMap:
        m_Texture: {fileID: 0}
        m_Scale: {x: 1, y: 1}
        m_Offset: {x: 0, y: 0}
    - _EmissionMap:
        m_Texture: {fileID: 0}
        m_Scale: {x: 1, y: 1}
        m_Offset: {x: 0, y: 0}
    - _MainTex:
        m_Texture: {fileID: 0}
        m_Scale: {x: 1, y: 1}
        m_Offset: {x: 0, y: 0}
    - _MetallicGlossMap:
        m_Texture: {fileID: 0}
        m_Scale: {x: 1, y: 1}
        m_Offset: {x: 0, y: 0}
    - _OcclusionMap:
        m_Texture: {fileID: 0}
        m_Scale: {x: 1, y: 1}
        m_Offset: {x: 0, y: 0}
    - _ParallaxMap:
        m_Texture: {fileID: 0}
        m_Scale: {x: 1, y: 1}
        m_Offset: {x: 0, y: 0}
    - _V_WIRE_IBL_Cube:
        m_Texture: {fileID: 0}
        m_Scale: {x: 1, y: 1}
        m_Offset: {x: 0, y: 0}
    - _V_WIRE_SourceTex:
        m_Texture: {fileID: 0}
        m_Scale: {x: 1, y: 1}
        m_Offset: {x: 0, y: 0}
    - _V_WIRE_WireTex:
        m_Texture: {fileID: 0}
        m_Scale: {x: 1, y: 1}
        m_Offset: {x: 0, y: 0}
    m_Floats:
    - _BumpScale: 1
    - _Cull: 2
    - _Cutoff: 0.5
    - _DetailNormalMapScale: 1
    - _DstBlend: 0
    - _GlossMapScale: 1
    - _Glossiness: 0.5
    - _GlossyReflections: 1
    - _Metallic: 0
    - _Mode: 0
    - _OcclusionStrength: 1
    - _Parallax: 0.02
    - _SmoothnessTextureChannel: 0
    - _SpecularHighlights: 1
    - _SrcBlend: 1
    - _UVSec: 0
    - _V_WIRE_DistanceFade: 0
    - _V_WIRE_DistanceFadeEnd: 10
    - _V_WIRE_DistanceFadeStart: 5
    - _V_WIRE_DynamicMaskEffectsBaseTexEnumID: 0
    - _V_WIRE_DynamicMaskEffectsBaseTexInvert: 0
    - _V_WIRE_DynamicMaskEnumID: 0
    - _V_WIRE_DynamicMaskInvert: -1
    - _V_WIRE_DynamicMaskSmooth: 1
    - _V_WIRE_DynamicMaskType: 1
    - _V_WIRE_EmissionStrength: 0
    - _V_WIRE_FixedSize: 0
    - _V_WIRE_FresnelBias: 0
    - _V_WIRE_FresnelEnumID: 0
    - _V_WIRE_FresnelInvert: 0
    - _V_WIRE_FresnelPow: 1
    - _V_WIRE_IBLEnumID: 0
    - _V_WIRE_IBL_Cube_Contrast: 1
    - _V_WIRE_IBL_Cube_Intensity: 1
    - _V_WIRE_IBL_Light_Strength: 0
    - _V_WIRE_IBL_Roughness: 0
    - _V_WIRE_ImprovedBlendEnumID: 0
    - _V_WIRE_ReflectionEnumID: 0
    - _V_WIRE_Reflection_Fresnel_Bias: -1
    - _V_WIRE_Reflection_Roughness: 0.3
    - _V_WIRE_Reflection_Strength: 0.5
    - _V_WIRE_RenderingOptions_UnlitEnumID: 0
    - _V_WIRE_Size: 2
    - _V_WIRE_Source_Options: 0
    - _V_WIRE_Tag: 0
    - _V_WIRE_Title_M_Options: 0
    - _V_WIRE_Title_S_Options: 0
    - _V_WIRE_Title_UAR_Options: 0
    - _V_WIRE_Title_V_Options: 0
    - _V_WIRE_Title_W_Options: 0
    - _V_WIRE_TransparencyEnumID: 0
    - _V_WIRE_Transparency_M_Options: 0
    - _V_WIRE_TransparentTex_Alpha_Offset: 0
    - _V_WIRE_TransparentTex_Invert: 0
    - _V_WIRE_VertexColor: 0
    - _V_WIRE_WireTex_UVSet: 0
    - _V_WIRE_WireVertexColor: 0
    - _ZWrite: 1
    m_Colors:
    - _Color: {r: 0, g: 1, b: 0.89691234, a: 0.08235294}
    - _EmissionColor: {r: 0, g: 0, b: 0, a: 1}
    - _ReflectColor: {r: 0.5, g: 0.5, b: 0.5, a: 1}
    - _V_WIRE_Color: {r: 0, g: 1, b: 0.9348867, a: 1}
    - _V_WIRE_MainTex_Scroll: {r: 0, g: 0, b: 0, a: 0}
    - _V_WIRE_SourceTex_Scroll: {r: 0, g: 0, b: 0, a: 0}
    - _V_WIRE_WireTex_Scroll: {r: 0, g: 0, b: 0, a: 0}
